transcript
# vsim boothAlgorithm1b_tb 
# Start time: 15:45:33 on Feb 01,2025
# Loading work.boothAlgorithm1b_tb
# Loading work.boothAlgorithm1b
run 100ns
# Iteration           0: mult=0111111111111111111111111110000100, A=0000000000000000000000000000000000000000000000000000000000000000, mult[1:0]=00
# Iteration           1: mult=0011111111111111111111111111000010, A=0000000000000000000000000000000000000000000000000000000001101010, mult[1:0]=10
# Iteration           2: mult=0001111111111111111111111111100001, A=1111111111111111111111111111111111111111111111111111111110010110, mult[1:0]=01
# Iteration           3: mult=0000111111111111111111111111110000, A=1111111111111111111111111111111111111111111111111111111110010110, mult[1:0]=00
# Iteration           4: mult=0000011111111111111111111111111000, A=1111111111111111111111111111111111111111111111111111111110010110, mult[1:0]=00
# Iteration           5: mult=0000001111111111111111111111111100, A=1111111111111111111111111111111111111111111111111111111110010110, mult[1:0]=00
# Iteration           6: mult=0000000111111111111111111111111110, A=0000000000000000000000000000000000000000000000000000110011010110, mult[1:0]=10
# Iteration           7: mult=0000000011111111111111111111111111, A=0000000000000000000000000000000000000000000000000000110011010110, mult[1:0]=11
# Iteration           8: mult=0000000001111111111111111111111111, A=0000000000000000000000000000000000000000000000000000110011010110, mult[1:0]=11
# Iteration           9: mult=0000000000111111111111111111111111, A=0000000000000000000000000000000000000000000000000000110011010110, mult[1:0]=11
# Iteration          10: mult=0000000000011111111111111111111111, A=0000000000000000000000000000000000000000000000000000110011010110, mult[1:0]=11
# Iteration          11: mult=0000000000001111111111111111111111, A=0000000000000000000000000000000000000000000000000000110011010110, mult[1:0]=11
# Iteration          12: mult=0000000000000111111111111111111111, A=0000000000000000000000000000000000000000000000000000110011010110, mult[1:0]=11
# Iteration          13: mult=0000000000000011111111111111111111, A=0000000000000000000000000000000000000000000000000000110011010110, mult[1:0]=11
# Iteration          14: mult=0000000000000001111111111111111111, A=0000000000000000000000000000000000000000000000000000110011010110, mult[1:0]=11
# Iteration          15: mult=0000000000000000111111111111111111, A=0000000000000000000000000000000000000000000000000000110011010110, mult[1:0]=11
# Iteration          16: mult=0000000000000000011111111111111111, A=0000000000000000000000000000000000000000000000000000110011010110, mult[1:0]=11
# Iteration          17: mult=0000000000000000001111111111111111, A=0000000000000000000000000000000000000000000000000000110011010110, mult[1:0]=11
# Iteration          18: mult=0000000000000000000111111111111111, A=0000000000000000000000000000000000000000000000000000110011010110, mult[1:0]=11
# Iteration          19: mult=0000000000000000000011111111111111, A=0000000000000000000000000000000000000000000000000000110011010110, mult[1:0]=11
# Iteration          20: mult=0000000000000000000001111111111111, A=0000000000000000000000000000000000000000000000000000110011010110, mult[1:0]=11
# Iteration          21: mult=0000000000000000000000111111111111, A=0000000000000000000000000000000000000000000000000000110011010110, mult[1:0]=11
# Iteration          22: mult=0000000000000000000000011111111111, A=0000000000000000000000000000000000000000000000000000110011010110, mult[1:0]=11
# Iteration          23: mult=0000000000000000000000001111111111, A=0000000000000000000000000000000000000000000000000000110011010110, mult[1:0]=11
# Iteration          24: mult=0000000000000000000000000111111111, A=0000000000000000000000000000000000000000000000000000110011010110, mult[1:0]=11
# Iteration          25: mult=0000000000000000000000000011111111, A=0000000000000000000000000000000000000000000000000000110011010110, mult[1:0]=11
# Iteration          26: mult=0000000000000000000000000001111111, A=0000000000000000000000000000000000000000000000000000110011010110, mult[1:0]=11
# Iteration          27: mult=0000000000000000000000000000111111, A=0000000000000000000000000000000000000000000000000000110011010110, mult[1:0]=11
# Iteration          28: mult=0000000000000000000000000000011111, A=0000000000000000000000000000000000000000000000000000110011010110, mult[1:0]=11
# Iteration          29: mult=0000000000000000000000000000001111, A=0000000000000000000000000000000000000000000000000000110011010110, mult[1:0]=11
# Iteration          30: mult=0000000000000000000000000000000111, A=0000000000000000000000000000000000000000000000000000110011010110, mult[1:0]=11
# Iteration          31: mult=0000000000000000000000000000000011, A=0000000000000000000000000000000000000000000000000000110011010110, mult[1:0]=11
# Time=10000 | M=11111111111111111111111111001011 | Q=11111111111111111111111111000010| Result=0000000000000000000000000000000000000000000000000000110011010110
# End time: 15:45:59 on Feb 01,2025, Elapsed time: 0:00:26
# Errors: 0, Warnings: 0
